{
  "type": "panel",
  "name": "Word Cloud",
  "id": "grafana-wordcloud-panel",

  "info": {
    "description": "Word cloud  panel for grafana",
    "author": {
      "name": "NeoCor6",
      "url": "http://neocor6.com"
    },
    "keywords": ["word", "cloud",  "panel"],
    "logos": {
      "small": "src/img/piechart_logo_small.png",
      "large": "src/img/piechart_logo_large.png"
    },
    "links": [
      {"name": "Project site", "url": ""},
      {"name": "Blog Post", "url": ""},
      {"name": "MIT License", "url": ""}
    ],
    "screenshots": [

    ],
    "version": "1.0.0",
    "updated": "2016-12-21"
  },

  "dependencies": {
    "grafanaVersion": "3.x.x",
    "plugins": [ ]
  }
}
